…
Secondly, we clean our data by selecting the data we need.

CA_contributors_2016_cleaned <- CA_contributors_2016 %>%
  group_by(cand_nm,primary_city) %>% 
  summarise(total_amt = sum(contb_receipt_amt)) %>% 
  select(candidate = cand_nm, city = primary_city, money_raised = total_amt)
CA_contributors_2016_cleaned

## # A tibble: 7,732 x 3
## # Groups:   candidate [25]
##    candidate city         money_raised
##    <chr>     <chr>               <dbl>
##  1 Bush, Jeb Agoura Hills        4200 
##  2 Bush, Jeb Alameda             1700 
##  3 Bush, Jeb Alamo               5400 
##  4 Bush, Jeb Alhambra            5400 
##  5 Bush, Jeb Aliso Viejo         8100 
##  6 Bush, Jeb Altadena            5650 
##  7 Bush, Jeb Anaheim             9050 
##  8 Bush, Jeb Arcadia            31708.
##  9 Bush, Jeb Atherton           61400 
## 10 Bush, Jeb Auburn              2700 
## # ... with 7,722 more rows
…
